<mxfile host="app.diagrams.net" modified="2021-12-23T23:14:52.869Z" agent="5.0 (Windows NT 10.0; Win64; x64) AppleWebKit/537.36 (KHTML, like Gecko) Chrome/96.0.4664.110 Safari/537.36" etag="HWky5a85v-JxIgS3v4oq" version="15.9.4" type="gitlab">
  <diagram id="nurwiujBeuALemZvmDey" name="Page-1">
    <mxGraphModel dx="1197" dy="584" grid="1" gridSize="10" guides="1" tooltips="1" connect="1" arrows="1" fold="1" page="1" pageScale="1" pageWidth="1654" pageHeight="2336" math="0" shadow="0">
      <root>
        <mxCell id="0" />
        <mxCell id="1" parent="0" />
        <mxCell id="I8fZQG4MRTRytmF-wWSI-1" value="People" style="swimlane;childLayout=stackLayout;resizeParent=1;resizeParentMax=0;startSize=20;horizontal=0;horizontalStack=1;fontStyle=0;fontColor=#FF0000;" parent="1" vertex="1">
          <mxGeometry x="20" y="20" width="2415" height="820" as="geometry" />
        </mxCell>
        <mxCell id="I8fZQG4MRTRytmF-wWSI-2" value="Jan" style="swimlane;startSize=20;" parent="I8fZQG4MRTRytmF-wWSI-1" vertex="1">
          <mxGeometry x="20" width="160" height="820" as="geometry" />
        </mxCell>
        <mxCell id="I8fZQG4MRTRytmF-wWSI-20" value="kickoff project" style="rounded=0;whiteSpace=wrap;html=1;" parent="I8fZQG4MRTRytmF-wWSI-2" vertex="1">
          <mxGeometry x="15" y="30" width="90" height="40" as="geometry" />
        </mxCell>
        <mxCell id="I8fZQG4MRTRytmF-wWSI-70" value="Planning Team Engagement&amp;nbsp; Biro" style="rounded=1;whiteSpace=wrap;html=1;" parent="I8fZQG4MRTRytmF-wWSI-2" vertex="1">
          <mxGeometry x="20" y="660" width="120" height="60" as="geometry" />
        </mxCell>
        <mxCell id="I8fZQG4MRTRytmF-wWSI-72" value="Review Pembagian Team &amp;amp; Retrospective setahun" style="rounded=1;whiteSpace=wrap;html=1;" parent="I8fZQG4MRTRytmF-wWSI-2" vertex="1">
          <mxGeometry x="20" y="730" width="120" height="60" as="geometry" />
        </mxCell>
        <mxCell id="I8fZQG4MRTRytmF-wWSI-80" value="Review kompetensi teknis (2 tahunan)" style="rounded=1;whiteSpace=wrap;html=1;" parent="I8fZQG4MRTRytmF-wWSI-2" vertex="1">
          <mxGeometry x="15" y="320" width="120" height="60" as="geometry" />
        </mxCell>
        <mxCell id="I8fZQG4MRTRytmF-wWSI-3" value="Feb" style="swimlane;startSize=20;" parent="I8fZQG4MRTRytmF-wWSI-1" vertex="1">
          <mxGeometry x="180" width="180" height="820" as="geometry" />
        </mxCell>
        <mxCell id="I8fZQG4MRTRytmF-wWSI-77" value="Review Gap Teknis Tim" style="rounded=1;whiteSpace=wrap;html=1;" parent="I8fZQG4MRTRytmF-wWSI-3" vertex="1">
          <mxGeometry x="25" y="320" width="120" height="60" as="geometry" />
        </mxCell>
        <mxCell id="I8fZQG4MRTRytmF-wWSI-71" value="Review COP Plan&amp;nbsp; &amp;amp; penggantian champion" style="rounded=1;whiteSpace=wrap;html=1;" parent="I8fZQG4MRTRytmF-wWSI-3" vertex="1">
          <mxGeometry x="25" y="730" width="120" height="60" as="geometry" />
        </mxCell>
        <mxCell id="I8fZQG4MRTRytmF-wWSI-78" style="edgeStyle=orthogonalEdgeStyle;rounded=0;jumpStyle=gap;jumpSize=7;orthogonalLoop=1;jettySize=auto;html=1;exitX=1;exitY=0.5;exitDx=0;exitDy=0;entryX=0;entryY=0.5;entryDx=0;entryDy=0;" parent="I8fZQG4MRTRytmF-wWSI-1" source="I8fZQG4MRTRytmF-wWSI-77" target="I8fZQG4MRTRytmF-wWSI-69" edge="1">
          <mxGeometry relative="1" as="geometry" />
        </mxCell>
        <mxCell id="I8fZQG4MRTRytmF-wWSI-81" style="edgeStyle=orthogonalEdgeStyle;rounded=0;jumpStyle=gap;jumpSize=7;orthogonalLoop=1;jettySize=auto;html=1;exitX=1;exitY=0.5;exitDx=0;exitDy=0;entryX=0;entryY=0.5;entryDx=0;entryDy=0;" parent="I8fZQG4MRTRytmF-wWSI-1" source="I8fZQG4MRTRytmF-wWSI-80" target="I8fZQG4MRTRytmF-wWSI-77" edge="1">
          <mxGeometry relative="1" as="geometry" />
        </mxCell>
        <mxCell id="I8fZQG4MRTRytmF-wWSI-4" value="Mar" style="swimlane;startSize=20;" parent="I8fZQG4MRTRytmF-wWSI-1" vertex="1">
          <mxGeometry x="360" width="175" height="820" as="geometry" />
        </mxCell>
        <mxCell id="I8fZQG4MRTRytmF-wWSI-42" value="KPI / PM" style="rounded=1;whiteSpace=wrap;html=1;" parent="I8fZQG4MRTRytmF-wWSI-4" vertex="1">
          <mxGeometry x="40" y="30" width="90" height="40" as="geometry" />
        </mxCell>
        <mxCell id="I8fZQG4MRTRytmF-wWSI-69" value="Kickoff Rencana pengembangan teknis S7-S4" style="rounded=1;whiteSpace=wrap;html=1;" parent="I8fZQG4MRTRytmF-wWSI-4" vertex="1">
          <mxGeometry x="27.5" y="320" width="120" height="60" as="geometry" />
        </mxCell>
        <mxCell id="Ii5WV0eq1cvaaw8QFyrV-1" value="Review TE NIS" style="rounded=1;whiteSpace=wrap;html=1;" parent="I8fZQG4MRTRytmF-wWSI-4" vertex="1">
          <mxGeometry x="25" y="570" width="120" height="60" as="geometry" />
        </mxCell>
        <mxCell id="9co1Rd8kZVlqjpMw-R2K-1" value="Q1 cross &amp;amp; priority project Review" style="rounded=1;whiteSpace=wrap;html=1;" vertex="1" parent="I8fZQG4MRTRytmF-wWSI-4">
          <mxGeometry x="27.5" y="110" width="120" height="60" as="geometry" />
        </mxCell>
        <mxCell id="I8fZQG4MRTRytmF-wWSI-46" value="Apr" style="swimlane;startSize=20;" parent="I8fZQG4MRTRytmF-wWSI-1" vertex="1">
          <mxGeometry x="535" width="160" height="820" as="geometry" />
        </mxCell>
        <mxCell id="Ii5WV0eq1cvaaw8QFyrV-3" value="Review TE Biro" style="rounded=1;whiteSpace=wrap;html=1;" parent="I8fZQG4MRTRytmF-wWSI-46" vertex="1">
          <mxGeometry x="20" y="660" width="120" height="60" as="geometry" />
        </mxCell>
        <mxCell id="I8fZQG4MRTRytmF-wWSI-12" value="Mei" style="swimlane;startSize=20;" parent="I8fZQG4MRTRytmF-wWSI-1" vertex="1">
          <mxGeometry x="695" width="160" height="820" as="geometry" />
        </mxCell>
        <mxCell id="I8fZQG4MRTRytmF-wWSI-22" value="Coaching 1" style="whiteSpace=wrap;html=1;rounded=0;" parent="I8fZQG4MRTRytmF-wWSI-12" vertex="1">
          <mxGeometry x="30" y="330" width="100" height="40" as="geometry" />
        </mxCell>
        <mxCell id="3ZgIknT14dQOl1O6xYMs-3" value="Bahas TE, panitia, dll yang ada budget HCM + handover ke panitia baru" style="whiteSpace=wrap;html=1;rounded=1;" parent="I8fZQG4MRTRytmF-wWSI-12" vertex="1">
          <mxGeometry x="20" y="570" width="120" height="60" as="geometry" />
        </mxCell>
        <mxCell id="I8fZQG4MRTRytmF-wWSI-13" value="Juni" style="swimlane;startSize=20;" parent="I8fZQG4MRTRytmF-wWSI-1" vertex="1">
          <mxGeometry x="855" width="175" height="820" as="geometry" />
        </mxCell>
        <mxCell id="I8fZQG4MRTRytmF-wWSI-24" value="1st coaching and review" style="whiteSpace=wrap;html=1;rounded=0;" parent="I8fZQG4MRTRytmF-wWSI-13" vertex="1">
          <mxGeometry x="47.5" y="30" width="80" height="40" as="geometry" />
        </mxCell>
        <mxCell id="9co1Rd8kZVlqjpMw-R2K-5" value="Q2 cross &amp;amp; priority project&amp;nbsp;Review" style="rounded=1;whiteSpace=wrap;html=1;" vertex="1" parent="I8fZQG4MRTRytmF-wWSI-13">
          <mxGeometry x="27.5" y="110" width="120" height="60" as="geometry" />
        </mxCell>
        <mxCell id="I8fZQG4MRTRytmF-wWSI-14" value="Juli" style="swimlane;startSize=20;" parent="I8fZQG4MRTRytmF-wWSI-1" vertex="1">
          <mxGeometry x="1030" width="145" height="820" as="geometry" />
        </mxCell>
        <mxCell id="I8fZQG4MRTRytmF-wWSI-31" value="Initiative planning for next year" style="whiteSpace=wrap;html=1;rounded=1;" parent="I8fZQG4MRTRytmF-wWSI-14" vertex="1">
          <mxGeometry x="22.5" y="200" width="100" height="45" as="geometry" />
        </mxCell>
        <mxCell id="I8fZQG4MRTRytmF-wWSI-73" value="Training Plan Tahun Depan" style="rounded=1;whiteSpace=wrap;html=1;" parent="I8fZQG4MRTRytmF-wWSI-14" vertex="1">
          <mxGeometry x="12.5" y="260" width="120" height="60" as="geometry" />
        </mxCell>
        <mxCell id="I8fZQG4MRTRytmF-wWSI-15" value="Aug" style="swimlane;startSize=20;" parent="I8fZQG4MRTRytmF-wWSI-1" vertex="1">
          <mxGeometry x="1175" width="430" height="820" as="geometry" />
        </mxCell>
        <mxCell id="I8fZQG4MRTRytmF-wWSI-30" value="Budget planning next year" style="rounded=1;whiteSpace=wrap;html=1;" parent="I8fZQG4MRTRytmF-wWSI-15" vertex="1">
          <mxGeometry x="75" y="200" width="90" height="45" as="geometry" />
        </mxCell>
        <mxCell id="I8fZQG4MRTRytmF-wWSI-33" style="edgeStyle=orthogonalEdgeStyle;rounded=0;orthogonalLoop=1;jettySize=auto;html=1;exitX=1;exitY=0.5;exitDx=0;exitDy=0;" parent="I8fZQG4MRTRytmF-wWSI-1" source="I8fZQG4MRTRytmF-wWSI-31" target="I8fZQG4MRTRytmF-wWSI-30" edge="1">
          <mxGeometry relative="1" as="geometry" />
        </mxCell>
        <mxCell id="I8fZQG4MRTRytmF-wWSI-35" value="" style="edgeStyle=orthogonalEdgeStyle;rounded=0;orthogonalLoop=1;jettySize=auto;html=1;" parent="I8fZQG4MRTRytmF-wWSI-1" source="I8fZQG4MRTRytmF-wWSI-30" target="I8fZQG4MRTRytmF-wWSI-34" edge="1">
          <mxGeometry relative="1" as="geometry">
            <Array as="points">
              <mxPoint x="1225" y="180" />
            </Array>
          </mxGeometry>
        </mxCell>
        <mxCell id="I8fZQG4MRTRytmF-wWSI-16" value="Sep" style="swimlane;startSize=20;" parent="I8fZQG4MRTRytmF-wWSI-1" vertex="1">
          <mxGeometry x="1605" width="250" height="820" as="geometry" />
        </mxCell>
        <mxCell id="I8fZQG4MRTRytmF-wWSI-67" value="NIS Project List:&lt;br&gt;RBB&lt;br&gt;LRPTI&lt;br&gt;PKD&lt;br&gt;Blueprint&lt;br&gt;IIO project" style="rounded=1;whiteSpace=wrap;html=1;" parent="I8fZQG4MRTRytmF-wWSI-16" vertex="1">
          <mxGeometry x="65" y="190" width="120" height="90" as="geometry" />
        </mxCell>
        <mxCell id="9co1Rd8kZVlqjpMw-R2K-6" value="Q3 cross &amp;amp; priority project&amp;nbsp;" style="rounded=1;whiteSpace=wrap;html=1;" vertex="1" parent="I8fZQG4MRTRytmF-wWSI-16">
          <mxGeometry x="74" y="110" width="120" height="60" as="geometry" />
        </mxCell>
        <mxCell id="I8fZQG4MRTRytmF-wWSI-17" value="Okt" style="swimlane;startSize=20;" parent="I8fZQG4MRTRytmF-wWSI-1" vertex="1">
          <mxGeometry x="1855" width="120" height="820" as="geometry" />
        </mxCell>
        <mxCell id="I8fZQG4MRTRytmF-wWSI-27" value="Coaching 2" style="whiteSpace=wrap;html=1;rounded=0;" parent="I8fZQG4MRTRytmF-wWSI-17" vertex="1">
          <mxGeometry x="15" y="330" width="90" height="40" as="geometry" />
        </mxCell>
        <mxCell id="I8fZQG4MRTRytmF-wWSI-18" value="Nov" style="swimlane;startSize=20;" parent="I8fZQG4MRTRytmF-wWSI-1" vertex="1">
          <mxGeometry x="1975" width="120" height="820" as="geometry" />
        </mxCell>
        <mxCell id="I8fZQG4MRTRytmF-wWSI-34" value="Per Biro&lt;br&gt;1. Map inisiatif ke building block&lt;br&gt;2. Identify cross &amp;amp; priority project" style="whiteSpace=wrap;html=1;rounded=1;" parent="I8fZQG4MRTRytmF-wWSI-18" vertex="1">
          <mxGeometry x="20" y="108" width="80" height="130" as="geometry" />
        </mxCell>
        <mxCell id="9co1Rd8kZVlqjpMw-R2K-12" value="2nd&amp;nbsp;&lt;br&gt;coaching" style="rounded=0;whiteSpace=wrap;html=1;" vertex="1" parent="I8fZQG4MRTRytmF-wWSI-18">
          <mxGeometry x="23" y="25" width="70" height="50" as="geometry" />
        </mxCell>
        <mxCell id="I8fZQG4MRTRytmF-wWSI-19" value="Des" style="swimlane;startSize=20;" parent="I8fZQG4MRTRytmF-wWSI-1" vertex="1">
          <mxGeometry x="2095" width="320" height="820" as="geometry" />
        </mxCell>
        <mxCell id="I8fZQG4MRTRytmF-wWSI-36" value="Planning Session gabungan + breakout per biro" style="whiteSpace=wrap;html=1;rounded=1;" parent="I8fZQG4MRTRytmF-wWSI-19" vertex="1">
          <mxGeometry x="160" y="119" width="120" height="110" as="geometry" />
        </mxCell>
        <mxCell id="I8fZQG4MRTRytmF-wWSI-83" value="Assessment plan pengembangan teknis" style="rounded=1;whiteSpace=wrap;html=1;" parent="I8fZQG4MRTRytmF-wWSI-19" vertex="1">
          <mxGeometry x="-1542.5" y="490" width="1860" height="60" as="geometry" />
        </mxCell>
        <mxCell id="3ZgIknT14dQOl1O6xYMs-5" value="Assessment untuk orang yang akan dipromosi di H+1" style="rounded=1;whiteSpace=wrap;html=1;" parent="I8fZQG4MRTRytmF-wWSI-19" vertex="1">
          <mxGeometry x="90" y="590" width="120" height="60" as="geometry" />
        </mxCell>
        <mxCell id="I8fZQG4MRTRytmF-wWSI-23" value="" style="edgeStyle=orthogonalEdgeStyle;rounded=0;orthogonalLoop=1;jettySize=auto;html=1;" parent="I8fZQG4MRTRytmF-wWSI-1" source="I8fZQG4MRTRytmF-wWSI-20" target="I8fZQG4MRTRytmF-wWSI-22" edge="1">
          <mxGeometry relative="1" as="geometry">
            <Array as="points">
              <mxPoint x="80" y="210" />
              <mxPoint x="610" y="210" />
              <mxPoint x="610" y="350" />
            </Array>
          </mxGeometry>
        </mxCell>
        <mxCell id="I8fZQG4MRTRytmF-wWSI-25" value="" style="edgeStyle=orthogonalEdgeStyle;rounded=0;orthogonalLoop=1;jettySize=auto;html=1;jumpStyle=gap;jumpSize=7;entryX=0;entryY=0.5;entryDx=0;entryDy=0;" parent="I8fZQG4MRTRytmF-wWSI-1" source="I8fZQG4MRTRytmF-wWSI-20" target="I8fZQG4MRTRytmF-wWSI-42" edge="1">
          <mxGeometry relative="1" as="geometry">
            <Array as="points">
              <mxPoint x="325" y="50" />
            </Array>
          </mxGeometry>
        </mxCell>
        <mxCell id="I8fZQG4MRTRytmF-wWSI-28" value="" style="edgeStyle=orthogonalEdgeStyle;rounded=0;orthogonalLoop=1;jettySize=auto;html=1;" parent="I8fZQG4MRTRytmF-wWSI-1" source="I8fZQG4MRTRytmF-wWSI-22" target="I8fZQG4MRTRytmF-wWSI-27" edge="1">
          <mxGeometry relative="1" as="geometry" />
        </mxCell>
        <mxCell id="I8fZQG4MRTRytmF-wWSI-43" style="edgeStyle=orthogonalEdgeStyle;rounded=0;jumpStyle=gap;jumpSize=7;orthogonalLoop=1;jettySize=auto;html=1;exitX=1;exitY=0.5;exitDx=0;exitDy=0;entryX=0;entryY=0.5;entryDx=0;entryDy=0;" parent="I8fZQG4MRTRytmF-wWSI-1" source="I8fZQG4MRTRytmF-wWSI-42" target="I8fZQG4MRTRytmF-wWSI-24" edge="1">
          <mxGeometry relative="1" as="geometry">
            <mxPoint x="770" y="50" as="targetPoint" />
          </mxGeometry>
        </mxCell>
        <mxCell id="I8fZQG4MRTRytmF-wWSI-79" style="edgeStyle=orthogonalEdgeStyle;rounded=0;jumpStyle=gap;jumpSize=7;orthogonalLoop=1;jettySize=auto;html=1;exitX=1;exitY=0.5;exitDx=0;exitDy=0;entryX=0;entryY=0.5;entryDx=0;entryDy=0;" parent="I8fZQG4MRTRytmF-wWSI-1" source="I8fZQG4MRTRytmF-wWSI-69" target="I8fZQG4MRTRytmF-wWSI-22" edge="1">
          <mxGeometry relative="1" as="geometry">
            <Array as="points">
              <mxPoint x="550" y="350" />
              <mxPoint x="550" y="350" />
            </Array>
          </mxGeometry>
        </mxCell>
        <mxCell id="I8fZQG4MRTRytmF-wWSI-82" style="edgeStyle=orthogonalEdgeStyle;rounded=0;jumpStyle=gap;jumpSize=7;orthogonalLoop=1;jettySize=auto;html=1;exitX=1;exitY=0.5;exitDx=0;exitDy=0;" parent="I8fZQG4MRTRytmF-wWSI-1" source="I8fZQG4MRTRytmF-wWSI-69" target="I8fZQG4MRTRytmF-wWSI-83" edge="1">
          <mxGeometry relative="1" as="geometry">
            <mxPoint x="1180" y="450" as="targetPoint" />
            <Array as="points">
              <mxPoint x="560" y="350" />
              <mxPoint x="560" y="460" />
              <mxPoint x="1428" y="460" />
            </Array>
          </mxGeometry>
        </mxCell>
        <mxCell id="I8fZQG4MRTRytmF-wWSI-86" style="edgeStyle=orthogonalEdgeStyle;rounded=0;jumpStyle=gap;jumpSize=7;orthogonalLoop=1;jettySize=auto;html=1;exitX=1;exitY=0.5;exitDx=0;exitDy=0;entryX=0;entryY=0.5;entryDx=0;entryDy=0;" parent="I8fZQG4MRTRytmF-wWSI-1" source="I8fZQG4MRTRytmF-wWSI-36" target="I8fZQG4MRTRytmF-wWSI-20" edge="1">
          <mxGeometry relative="1" as="geometry">
            <Array as="points">
              <mxPoint x="2400" y="185" />
              <mxPoint x="2400" y="80" />
              <mxPoint x="15" y="80" />
              <mxPoint x="15" y="50" />
            </Array>
          </mxGeometry>
        </mxCell>
        <mxCell id="Ii5WV0eq1cvaaw8QFyrV-2" style="edgeStyle=orthogonalEdgeStyle;rounded=0;orthogonalLoop=1;jettySize=auto;html=1;exitX=1;exitY=0.5;exitDx=0;exitDy=0;entryX=0;entryY=0.5;entryDx=0;entryDy=0;" parent="I8fZQG4MRTRytmF-wWSI-1" source="Ii5WV0eq1cvaaw8QFyrV-1" target="3ZgIknT14dQOl1O6xYMs-3" edge="1">
          <mxGeometry relative="1" as="geometry" />
        </mxCell>
        <mxCell id="Ii5WV0eq1cvaaw8QFyrV-4" value="" style="edgeStyle=orthogonalEdgeStyle;rounded=0;orthogonalLoop=1;jettySize=auto;html=1;" parent="I8fZQG4MRTRytmF-wWSI-1" source="I8fZQG4MRTRytmF-wWSI-70" target="Ii5WV0eq1cvaaw8QFyrV-3" edge="1">
          <mxGeometry relative="1" as="geometry" />
        </mxCell>
        <mxCell id="Ii5WV0eq1cvaaw8QFyrV-5" style="edgeStyle=orthogonalEdgeStyle;rounded=0;orthogonalLoop=1;jettySize=auto;html=1;exitX=0.5;exitY=1;exitDx=0;exitDy=0;entryX=0.5;entryY=1;entryDx=0;entryDy=0;" parent="I8fZQG4MRTRytmF-wWSI-1" source="3ZgIknT14dQOl1O6xYMs-3" target="Ii5WV0eq1cvaaw8QFyrV-1" edge="1">
          <mxGeometry relative="1" as="geometry" />
        </mxCell>
        <mxCell id="9co1Rd8kZVlqjpMw-R2K-7" style="edgeStyle=orthogonalEdgeStyle;rounded=0;orthogonalLoop=1;jettySize=auto;html=1;exitX=1;exitY=0.5;exitDx=0;exitDy=0;" edge="1" parent="I8fZQG4MRTRytmF-wWSI-1" source="9co1Rd8kZVlqjpMw-R2K-1" target="9co1Rd8kZVlqjpMw-R2K-5">
          <mxGeometry relative="1" as="geometry" />
        </mxCell>
        <mxCell id="9co1Rd8kZVlqjpMw-R2K-8" style="edgeStyle=orthogonalEdgeStyle;rounded=0;orthogonalLoop=1;jettySize=auto;html=1;exitX=1;exitY=0.5;exitDx=0;exitDy=0;entryX=0;entryY=0.5;entryDx=0;entryDy=0;" edge="1" parent="I8fZQG4MRTRytmF-wWSI-1" source="9co1Rd8kZVlqjpMw-R2K-5" target="9co1Rd8kZVlqjpMw-R2K-6">
          <mxGeometry relative="1" as="geometry" />
        </mxCell>
        <mxCell id="9co1Rd8kZVlqjpMw-R2K-9" style="edgeStyle=orthogonalEdgeStyle;rounded=0;orthogonalLoop=1;jettySize=auto;html=1;exitX=1;exitY=0.5;exitDx=0;exitDy=0;entryX=0;entryY=0.25;entryDx=0;entryDy=0;" edge="1" parent="I8fZQG4MRTRytmF-wWSI-1" source="9co1Rd8kZVlqjpMw-R2K-6" target="I8fZQG4MRTRytmF-wWSI-34">
          <mxGeometry relative="1" as="geometry" />
        </mxCell>
        <mxCell id="9co1Rd8kZVlqjpMw-R2K-10" style="edgeStyle=orthogonalEdgeStyle;rounded=0;orthogonalLoop=1;jettySize=auto;html=1;exitX=1;exitY=0.5;exitDx=0;exitDy=0;entryX=0;entryY=0.5;entryDx=0;entryDy=0;" edge="1" parent="I8fZQG4MRTRytmF-wWSI-1" source="I8fZQG4MRTRytmF-wWSI-20" target="9co1Rd8kZVlqjpMw-R2K-1">
          <mxGeometry relative="1" as="geometry" />
        </mxCell>
        <mxCell id="9co1Rd8kZVlqjpMw-R2K-11" style="edgeStyle=orthogonalEdgeStyle;rounded=0;orthogonalLoop=1;jettySize=auto;html=1;exitX=1;exitY=0.5;exitDx=0;exitDy=0;entryX=0;entryY=0.5;entryDx=0;entryDy=0;" edge="1" parent="I8fZQG4MRTRytmF-wWSI-1" source="I8fZQG4MRTRytmF-wWSI-30" target="I8fZQG4MRTRytmF-wWSI-67">
          <mxGeometry relative="1" as="geometry" />
        </mxCell>
        <mxCell id="I8fZQG4MRTRytmF-wWSI-37" value="" style="edgeStyle=orthogonalEdgeStyle;rounded=0;orthogonalLoop=1;jettySize=auto;html=1;" parent="I8fZQG4MRTRytmF-wWSI-1" source="I8fZQG4MRTRytmF-wWSI-34" target="I8fZQG4MRTRytmF-wWSI-36" edge="1">
          <mxGeometry relative="1" as="geometry" />
        </mxCell>
        <mxCell id="9co1Rd8kZVlqjpMw-R2K-13" style="edgeStyle=orthogonalEdgeStyle;rounded=0;orthogonalLoop=1;jettySize=auto;html=1;exitX=1;exitY=0.5;exitDx=0;exitDy=0;entryX=0;entryY=0.5;entryDx=0;entryDy=0;" edge="1" parent="I8fZQG4MRTRytmF-wWSI-1" source="I8fZQG4MRTRytmF-wWSI-24" target="9co1Rd8kZVlqjpMw-R2K-12">
          <mxGeometry relative="1" as="geometry" />
        </mxCell>
        <mxCell id="1MCPcolmCQ4oEucpfKQk-1" value="Technology" style="swimlane;childLayout=stackLayout;resizeParent=1;resizeParentMax=0;startSize=20;horizontal=0;horizontalStack=1;fontColor=#FF0000;" parent="1" vertex="1">
          <mxGeometry x="20" y="841" width="2410" height="450" as="geometry" />
        </mxCell>
        <mxCell id="1MCPcolmCQ4oEucpfKQk-2" value="Jan" style="swimlane;startSize=20;" parent="1MCPcolmCQ4oEucpfKQk-1" vertex="1">
          <mxGeometry x="20" width="160" height="450" as="geometry" />
        </mxCell>
        <mxCell id="w77YfBeOKi3h-hCMlreL-1" value="Review arsitektur &amp;amp; gartner hype cycle" style="rounded=1;whiteSpace=wrap;html=1;" parent="1MCPcolmCQ4oEucpfKQk-2" vertex="1">
          <mxGeometry x="20" y="60" width="120" height="60" as="geometry" />
        </mxCell>
        <mxCell id="1MCPcolmCQ4oEucpfKQk-12" value="Feb" style="swimlane;startSize=20;" parent="1MCPcolmCQ4oEucpfKQk-1" vertex="1">
          <mxGeometry x="180" width="180" height="450" as="geometry" />
        </mxCell>
        <mxCell id="1MCPcolmCQ4oEucpfKQk-14" value="Review ulang reliability matrix" style="rounded=1;whiteSpace=wrap;html=1;" parent="1MCPcolmCQ4oEucpfKQk-12" vertex="1">
          <mxGeometry x="30" y="297" width="120" height="60" as="geometry" />
        </mxCell>
        <mxCell id="1MCPcolmCQ4oEucpfKQk-8" value="Review perangkat EOL &amp;lt; 2 tahun &amp;amp; strategi replacement" style="rounded=1;whiteSpace=wrap;html=1;" parent="1MCPcolmCQ4oEucpfKQk-12" vertex="1">
          <mxGeometry x="30" y="60" width="120" height="60" as="geometry" />
        </mxCell>
        <mxCell id="1MCPcolmCQ4oEucpfKQk-9" value="Compare harga perangkat / review single vendor" style="rounded=1;whiteSpace=wrap;html=1;" parent="1MCPcolmCQ4oEucpfKQk-12" vertex="1">
          <mxGeometry x="30" y="139" width="120" height="61" as="geometry" />
        </mxCell>
        <mxCell id="1MCPcolmCQ4oEucpfKQk-10" value="Internal Risk Assessment di network compliance" style="rounded=1;whiteSpace=wrap;html=1;" parent="1MCPcolmCQ4oEucpfKQk-12" vertex="1">
          <mxGeometry x="30" y="219" width="120" height="60" as="geometry" />
        </mxCell>
        <mxCell id="1MCPcolmCQ4oEucpfKQk-18" value="Mar" style="swimlane;startSize=20;" parent="1MCPcolmCQ4oEucpfKQk-1" vertex="1">
          <mxGeometry x="360" width="175" height="450" as="geometry" />
        </mxCell>
        <mxCell id="1MCPcolmCQ4oEucpfKQk-22" value="Apr" style="swimlane;startSize=20;" parent="1MCPcolmCQ4oEucpfKQk-1" vertex="1">
          <mxGeometry x="535" width="160" height="450" as="geometry" />
        </mxCell>
        <mxCell id="1MCPcolmCQ4oEucpfKQk-23" value="Mei" style="swimlane;startSize=20;" parent="1MCPcolmCQ4oEucpfKQk-1" vertex="1">
          <mxGeometry x="695" width="160" height="450" as="geometry" />
        </mxCell>
        <mxCell id="1MCPcolmCQ4oEucpfKQk-25" value="Hackathon Internal &amp;amp; CTF" style="rounded=1;whiteSpace=wrap;html=1;" parent="1MCPcolmCQ4oEucpfKQk-23" vertex="1">
          <mxGeometry x="25" y="360" width="120" height="60" as="geometry" />
        </mxCell>
        <mxCell id="1MCPcolmCQ4oEucpfKQk-27" value="Juni" style="swimlane;startSize=20;" parent="1MCPcolmCQ4oEucpfKQk-1" vertex="1">
          <mxGeometry x="855" width="175" height="450" as="geometry" />
        </mxCell>
        <mxCell id="1MCPcolmCQ4oEucpfKQk-29" value="Juli" style="swimlane;startSize=20;" parent="1MCPcolmCQ4oEucpfKQk-1" vertex="1">
          <mxGeometry x="1030" width="140" height="450" as="geometry" />
        </mxCell>
        <mxCell id="1MCPcolmCQ4oEucpfKQk-32" value="Aug" style="swimlane;startSize=20;" parent="1MCPcolmCQ4oEucpfKQk-1" vertex="1">
          <mxGeometry x="1170" width="430" height="450" as="geometry" />
        </mxCell>
        <mxCell id="1MCPcolmCQ4oEucpfKQk-37" value="Sep" style="swimlane;startSize=20;" parent="1MCPcolmCQ4oEucpfKQk-1" vertex="1">
          <mxGeometry x="1600" width="250" height="450" as="geometry" />
        </mxCell>
        <mxCell id="1MCPcolmCQ4oEucpfKQk-39" value="Okt" style="swimlane;startSize=20;" parent="1MCPcolmCQ4oEucpfKQk-1" vertex="1">
          <mxGeometry x="1850" width="120" height="450" as="geometry" />
        </mxCell>
        <mxCell id="1MCPcolmCQ4oEucpfKQk-41" value="Nov" style="swimlane;startSize=20;" parent="1MCPcolmCQ4oEucpfKQk-1" vertex="1">
          <mxGeometry x="1970" width="120" height="450" as="geometry" />
        </mxCell>
        <mxCell id="1MCPcolmCQ4oEucpfKQk-43" value="Des" style="swimlane;startSize=20;" parent="1MCPcolmCQ4oEucpfKQk-1" vertex="1">
          <mxGeometry x="2090" width="320" height="450" as="geometry" />
        </mxCell>
        <mxCell id="w77YfBeOKi3h-hCMlreL-2" value="" style="edgeStyle=orthogonalEdgeStyle;rounded=0;orthogonalLoop=1;jettySize=auto;html=1;" parent="1MCPcolmCQ4oEucpfKQk-1" source="w77YfBeOKi3h-hCMlreL-1" target="1MCPcolmCQ4oEucpfKQk-8" edge="1">
          <mxGeometry relative="1" as="geometry" />
        </mxCell>
      </root>
    </mxGraphModel>
  </diagram>
</mxfile>
